{
	"test": {
		"btn": {
			"fr_FR": "Bouton test",
			"en_US": "Test Button",
			"en_UK": "Test Button"
		},
		"description": {
			"fr_FR": "Ceci est un bouton de test",
			"en_US": "This is a test button"
		}
	},
	"cancel": {
		"btn": {
			"fr_FR": "X"
		},
		"description": {
			"fr_FR": "Annuler"
		}
	},
	"mode": {
		"dessin": {
			"btn": {
				"fr_FR": "Mode dessin",
				"en_US": "Draw mode"
			},
			"description": {
				"fr_FR": "Passer en mode dessin",
				"en_US": "Activate draw mode"
			}
		}
	},
	"operation": {
		"point": {
			"btn": {
				"fr_FR": "Point",
				"en_US": "Point"
			},
			"description": {
				"fr_FR": "Placer un point",
				"en_US": "Mark a point"
			},
			"step": {
				"init": {
					"message": {
						"fr_FR": "Cliquez pour placer un point",
						"en_US": "Click to place a point"
					}
				}
			}
		},
		"line": {
			"btn": {
				"fr_FR": "Droite",
				"en_US": "Line"
			},
			"description": {
				"fr_FR": "Tracer une droite",
				"en_US": "Draw a line"
			},
			"step": {
				"init": {
					"message": {
						"fr_FR": "Cliquez sur un point de la droite",
						"en_US": "Click on a point of the line"
					}
				},
				"drag": {
					"message": {
						"fr_FR": "Déplacez le curseur pour indiquer la direction de la droite puis relâchez",
						"en_US": "Drag the mouse in the direction of the line"
					}
				},
				"click": {
					"message": {
						"fr_FR": "Cliquez sur un deuxième point pour indiquer la direction de la droite",
						"en_US": "Click on a second point to indicate the direction of the line"
					}
				}
			}
		},
		"segment": {
			"btn": {
				"fr_FR": "Segment",
				"en_US": "Segment"
			},
			"description": {
				"fr_FR": "Tracer un segment",
				"en_US": "Draw a segment"
			},
			"step": {
				"init": {
					"message": {
						"fr_FR": "Cliquez sur le point de départ du segment",
						"en_US": "Click on the starting point of the segment"
					}
				},
				"drag": {
					"message": {
						"fr_FR": "Déplacez la souris dans la direction de la droite",
						"en_US": "Drag the mouse in the direction of the line"
					}
				},
				"click": {
					"message": {
						"fr_FR": "Cliquez sur un deuxième point de la droite",
						"en_US": "Click on a second point of the line"
					}
				}
			}
		},
		"none": {
			"message": {
				"fr_FR": "",
				"en_US": ""
			}
		}
	}
}
